[ 2013-12-11T12:13:14+08:00 ] 101.226.64.201 /app/index.php/Access/Callback?signature=c37b6536c190664cb23ff43901ecc36c1a646c23&timestamp=1386735194&nonce=1386611695
INFO: [ route_check ] --START--
INFO: CheckRoute Behavior ::run [ RunTime:0.000511s ]
INFO: [ route_check ] --END-- [ RunTime:0.000583s ]
INFO: [ app_begin ] --START--
INFO: ReadHtmlCache Behavior ::run [ RunTime:0.000308s ]
INFO: [ app_begin ] --END-- [ RunTime:0.000363s ]
SQL: SHOW COLUMNS FROM `weixin_novellist` [ RunTime:0.000524s ]
SQL: SELECT `synopsis` FROM `weixin_novellist` WHERE ( `release_date` = '2013-12-11' ) LIMIT 1   [ RunTime:0.000389s ]
SQL: SHOW COLUMNS FROM `weixin_novelbook` [ RunTime:0.000298s ]
SQL: SELECT * FROM `weixin_novelbook` WHERE ( `follower_id` = 'o1ULjt2iRdCEoDKVRrKjT5zMKpIQ' ) LIMIT 1   [ RunTime:0.000261s ]

[ 2013-12-11T12:13:17+08:00 ] 124.64.100.229 /app/index.php/Frontend/Previous/index/0/uid+%3D%3E+o1ULjt2iRdCEoDKVRrKjT5zMKpIQ
INFO: [ route_check ] --START--
INFO: CheckRoute Behavior ::run [ RunTime:0.000519s ]
INFO: [ route_check ] --END-- [ RunTime:0.000606s ]
INFO: [ app_begin ] --START--
INFO: ReadHtmlCache Behavior ::run [ RunTime:0.000349s ]
INFO: [ app_begin ] --END-- [ RunTime:0.000403s ]
SQL: SHOW COLUMNS FROM `weixin_novellist` [ RunTime:0.000669s ]
SQL: SELECT COUNT(*) AS tp_count FROM `weixin_novellist` WHERE ( `release_date` < '2013-12-11' ) LIMIT 1   [ RunTime:0.000434s ]
SQL: SELECT * FROM `weixin_novellist` WHERE ( `release_date` < '2013-12-11' ) ORDER BY release_date desc LIMIT 0, 5   [ RunTime:0.000333s ]
INFO: [ view_parse ] --START--
INFO: ParseTemplate Behavior ::run [ RunTime:0.007228s ]
INFO: [ view_parse ] --END-- [ RunTime:0.007306s ]
INFO: [ view_filter ] --START--
INFO: ContentReplace Behavior ::run [ RunTime:0.000245s ]
INFO: TokenBuild Behavior ::run [ RunTime:0.000212s ]
INFO: WriteHtmlCache Behavior ::run [ RunTime:0.000126s ]
INFO: ShowRuntime Behavior ::run [ RunTime:0.000274s ]
INFO: [ view_filter ] --END-- [ RunTime:0.001007s ]
INFO: [ view_end ] --START--
INFO: ShowPageTrace Behavior ::run [ RunTime:0.000416s ]
INFO: [ view_end ] --END-- [ RunTime:0.000468s ]

[ 2013-12-11T12:13:25+08:00 ] 124.64.100.229 /app/index.php/Frontend/Index/comment/uid/o1ULjt2iRdCEoDKVRrKjT5zMKpIQ
INFO: [ route_check ] --START--
INFO: CheckRoute Behavior ::run [ RunTime:0.000584s ]
INFO: [ route_check ] --END-- [ RunTime:0.000698s ]
INFO: [ app_begin ] --START--
INFO: ReadHtmlCache Behavior ::run [ RunTime:0.000354s ]
INFO: [ app_begin ] --END-- [ RunTime:0.000418s ]
SQL: SHOW COLUMNS FROM `weixin_novellist` [ RunTime:0.000505s ]
SQL: SELECT * FROM `weixin_novellist` WHERE ( `release_date` = '2013-12-11' ) LIMIT 1   [ RunTime:0.000344s ]
SQL: SHOW COLUMNS FROM `weixin_novelcomment` [ RunTime:0.000350s ]
SQL: SELECT * FROM `weixin_novelcomment` WHERE ( novel_id=30 ) ORDER BY comment_time desc LIMIT 0,5   [ RunTime:0.000255s ]
SQL: SELECT COUNT(*) AS tp_count FROM `weixin_novelcomment` WHERE ( novel_id=30 ) LIMIT 1   [ RunTime:0.000161s ]
INFO: [ view_parse ] --START--
INFO: ParseTemplate Behavior ::run [ RunTime:0.007959s ]
INFO: [ view_parse ] --END-- [ RunTime:0.008047s ]
INFO: [ view_filter ] --START--
INFO: ContentReplace Behavior ::run [ RunTime:0.000240s ]
INFO: TokenBuild Behavior ::run [ RunTime:0.000215s ]
INFO: WriteHtmlCache Behavior ::run [ RunTime:0.000130s ]
INFO: ShowRuntime Behavior ::run [ RunTime:0.000303s ]
INFO: [ view_filter ] --END-- [ RunTime:0.001040s ]
INFO: [ view_end ] --START--
INFO: ShowPageTrace Behavior ::run [ RunTime:0.000431s ]
INFO: [ view_end ] --END-- [ RunTime:0.000492s ]

[ 2013-12-11T12:13:34+08:00 ] 124.64.100.229 /app/index.php/Frontend/Index/comment/uid/o1ULjt2iRdCEoDKVRrKjT5zMKpIQ
INFO: [ route_check ] --START--
INFO: CheckRoute Behavior ::run [ RunTime:0.000602s ]
INFO: [ route_check ] --END-- [ RunTime:0.000675s ]
INFO: [ app_begin ] --START--
INFO: ReadHtmlCache Behavior ::run [ RunTime:0.000338s ]
INFO: [ app_begin ] --END-- [ RunTime:0.000398s ]
SQL: SHOW COLUMNS FROM `weixin_novellist` [ RunTime:0.000629s ]
SQL: SELECT * FROM `weixin_novellist` WHERE ( `release_date` = '2013-12-11' ) LIMIT 1   [ RunTime:0.000426s ]
SQL: SHOW COLUMNS FROM `weixin_novelcomment` [ RunTime:0.000435s ]
SQL: SELECT * FROM `weixin_novelcomment` WHERE ( novel_id=30 ) ORDER BY comment_time desc LIMIT 0,5   [ RunTime:0.000387s ]
SQL: SELECT COUNT(*) AS tp_count FROM `weixin_novelcomment` WHERE ( novel_id=30 ) LIMIT 1   [ RunTime:0.000199s ]
INFO: [ view_parse ] --START--
INFO: ParseTemplate Behavior ::run [ RunTime:0.007421s ]
INFO: [ view_parse ] --END-- [ RunTime:0.007494s ]
INFO: [ view_filter ] --START--
INFO: ContentReplace Behavior ::run [ RunTime:0.000254s ]
INFO: TokenBuild Behavior ::run [ RunTime:0.000253s ]
INFO: WriteHtmlCache Behavior ::run [ RunTime:0.000170s ]
INFO: ShowRuntime Behavior ::run [ RunTime:0.000278s ]
INFO: [ view_filter ] --END-- [ RunTime:0.001128s ]
INFO: [ view_end ] --START--
INFO: ShowPageTrace Behavior ::run [ RunTime:0.000407s ]
INFO: [ view_end ] --END-- [ RunTime:0.000460s ]

[ 2013-12-11T12:13:37+08:00 ] 124.64.100.229 /app/index.php/Frontend/Index/handlecomment
INFO: [ route_check ] --START--
INFO: CheckRoute Behavior ::run [ RunTime:0.000479s ]
INFO: [ route_check ] --END-- [ RunTime:0.000552s ]
INFO: [ app_begin ] --START--
INFO: ReadHtmlCache Behavior ::run [ RunTime:0.000304s ]
INFO: [ app_begin ] --END-- [ RunTime:0.000355s ]
SQL: SHOW COLUMNS FROM `weixin_novelcomment` [ RunTime:0.000494s ]
SQL: SHOW COLUMNS FROM `weixin_followers` [ RunTime:0.000480s ]
SQL: SELECT `id` FROM `weixin_followers` WHERE ( `open_id` = 'o1ULjt2iRdCEoDKVRrKjT5zMKpIQ' ) LIMIT 1   [ RunTime:0.000331s ]
SQL: INSERT INTO `weixin_novelcomment` (`contents`,`novel_id`,`follower_id`) VALUES ('输入您的评论...',30,19) [ RunTime:0.053118s ]
SQL: SHOW COLUMNS FROM `weixin_novellist` [ RunTime:0.000551s ]
SQL: UPDATE `weixin_novellist` SET `comment_counts`=comment_counts+1 WHERE ( id=30 ) [ RunTime:0.003252s ]

[ 2013-12-11T12:13:50+08:00 ] 124.64.100.229 /app/index.php/Frontend/Index/handlecomment
INFO: [ route_check ] --START--
INFO: CheckRoute Behavior ::run [ RunTime:0.000524s ]
INFO: [ route_check ] --END-- [ RunTime:0.000596s ]
INFO: [ app_begin ] --START--
INFO: ReadHtmlCache Behavior ::run [ RunTime:0.000335s ]
INFO: [ app_begin ] --END-- [ RunTime:0.000385s ]
SQL: SHOW COLUMNS FROM `weixin_novelcomment` [ RunTime:0.000508s ]
SQL: SHOW COLUMNS FROM `weixin_followers` [ RunTime:0.000507s ]
SQL: SELECT `id` FROM `weixin_followers` WHERE ( `open_id` = 'o1ULjt2iRdCEoDKVRrKjT5zMKpIQ' ) LIMIT 1   [ RunTime:0.000313s ]
SQL: INSERT INTO `weixin_novelcomment` (`contents`,`novel_id`,`follower_id`) VALUES ('期待',30,19) [ RunTime:0.010958s ]
SQL: SHOW COLUMNS FROM `weixin_novellist` [ RunTime:0.000411s ]
SQL: UPDATE `weixin_novellist` SET `comment_counts`=comment_counts+1 WHERE ( id=30 ) [ RunTime:0.003402s ]

[ 2013-12-11T13:57:32+08:00 ] 101.226.64.201 /app/index.php/Access/Callback?signature=8741be16de73b75061755c10010c99560a996518&timestamp=1386741452&nonce=1387167083
INFO: [ route_check ] --START--
INFO: CheckRoute Behavior ::run [ RunTime:0.000511s ]
INFO: [ route_check ] --END-- [ RunTime:0.000583s ]
INFO: [ app_begin ] --START--
INFO: ReadHtmlCache Behavior ::run [ RunTime:0.000327s ]
INFO: [ app_begin ] --END-- [ RunTime:0.000391s ]
SQL: SHOW COLUMNS FROM `weixin_novellist` [ RunTime:0.000607s ]
SQL: SELECT `synopsis` FROM `weixin_novellist` WHERE ( `release_date` = '2013-12-11' ) LIMIT 1   [ RunTime:0.000385s ]
SQL: SHOW COLUMNS FROM `weixin_novelbook` [ RunTime:0.000320s ]
SQL: SELECT * FROM `weixin_novelbook` WHERE ( `follower_id` = 'o1ULjt2iRdCEoDKVRrKjT5zMKpIQ' ) LIMIT 1   [ RunTime:0.000229s ]

[ 2013-12-11T13:58:22+08:00 ] 124.64.100.229 /app/index.php/Frontend/Index/futurelist/uid/o1ULjt2iRdCEoDKVRrKjT5zMKpIQ
INFO: [ route_check ] --START--
INFO: CheckRoute Behavior ::run [ RunTime:0.000602s ]
INFO: [ route_check ] --END-- [ RunTime:0.000675s ]
INFO: [ app_begin ] --START--
INFO: ReadHtmlCache Behavior ::run [ RunTime:0.000428s ]
INFO: [ app_begin ] --END-- [ RunTime:0.000509s ]
SQL: SHOW COLUMNS FROM `weixin_novellist` [ RunTime:0.000557s ]
SQL: SELECT COUNT(*) AS tp_count FROM `weixin_novellist` WHERE ( `release_date` > '2013-12-11' ) LIMIT 1   [ RunTime:0.000379s ]
SQL: SELECT * FROM `weixin_novellist` WHERE ( `release_date` > '2013-12-11' ) LIMIT 0,5   [ RunTime:0.000203s ]
INFO: [ view_parse ] --START--
INFO: ParseTemplate Behavior ::run [ RunTime:0.006059s ]
INFO: [ view_parse ] --END-- [ RunTime:0.006128s ]
INFO: [ view_filter ] --START--
INFO: ContentReplace Behavior ::run [ RunTime:0.000216s ]
INFO: TokenBuild Behavior ::run [ RunTime:0.000235s ]
INFO: WriteHtmlCache Behavior ::run [ RunTime:0.000128s ]
INFO: ShowRuntime Behavior ::run [ RunTime:0.000262s ]
INFO: [ view_filter ] --END-- [ RunTime:0.000991s ]
INFO: [ view_end ] --START--
INFO: ShowPageTrace Behavior ::run [ RunTime:0.000409s ]
INFO: [ view_end ] --END-- [ RunTime:0.000488s ]

[ 2013-12-11T13:58:30+08:00 ] 124.64.100.229 /app/index.php/Frontend/Previous/index/0/uid+%3D%3E+o1ULjt2iRdCEoDKVRrKjT5zMKpIQ
INFO: [ route_check ] --START--
INFO: CheckRoute Behavior ::run [ RunTime:0.000531s ]
INFO: [ route_check ] --END-- [ RunTime:0.000616s ]
INFO: [ app_begin ] --START--
INFO: ReadHtmlCache Behavior ::run [ RunTime:0.000324s ]
INFO: [ app_begin ] --END-- [ RunTime:0.000391s ]
SQL: SHOW COLUMNS FROM `weixin_novellist` [ RunTime:0.000508s ]
SQL: SELECT COUNT(*) AS tp_count FROM `weixin_novellist` WHERE ( `release_date` < '2013-12-11' ) LIMIT 1   [ RunTime:0.000387s ]
SQL: SELECT * FROM `weixin_novellist` WHERE ( `release_date` < '2013-12-11' ) ORDER BY release_date desc LIMIT 0, 5   [ RunTime:0.000229s ]
INFO: [ view_parse ] --START--
INFO: ParseTemplate Behavior ::run [ RunTime:0.006277s ]
INFO: [ view_parse ] --END-- [ RunTime:0.006340s ]
INFO: [ view_filter ] --START--
INFO: ContentReplace Behavior ::run [ RunTime:0.000233s ]
INFO: TokenBuild Behavior ::run [ RunTime:0.000234s ]
INFO: WriteHtmlCache Behavior ::run [ RunTime:0.000126s ]
INFO: ShowRuntime Behavior ::run [ RunTime:0.000301s ]
INFO: [ view_filter ] --END-- [ RunTime:0.001067s ]
INFO: [ view_end ] --START--
INFO: ShowPageTrace Behavior ::run [ RunTime:0.000392s ]
INFO: [ view_end ] --END-- [ RunTime:0.000444s ]

[ 2013-12-11T14:39:45+08:00 ] 140.206.163.92 /app/index.php/Access/Callback?signature=390931ae152020f17860680dbcedbefc818c4908&timestamp=1386743985&nonce=1387164204
INFO: [ route_check ] --START--
INFO: CheckRoute Behavior ::run [ RunTime:0.000758s ]
INFO: [ route_check ] --END-- [ RunTime:0.000871s ]
INFO: [ app_begin ] --START--
INFO: ReadHtmlCache Behavior ::run [ RunTime:0.000353s ]
INFO: [ app_begin ] --END-- [ RunTime:0.000423s ]
SQL: SHOW COLUMNS FROM `weixin_followers` [ RunTime:0.000590s ]
SQL: SELECT COUNT(*) AS tp_count FROM `weixin_followers` WHERE ( `open_id` = 'o1ULjt4f2gb7Qb1EF6x66c7gdTvA' ) LIMIT 1   [ RunTime:0.000326s ]
SQL: INSERT INTO `weixin_followers` (`open_id`) VALUES ('o1ULjt4f2gb7Qb1EF6x66c7gdTvA') [ RunTime:0.027148s ]

[ 2013-12-11T23:09:43+08:00 ] 101.226.33.171 /app/index.php/Access/Callback?signature=df8d27b6129d042c77cc05075de1c1a8afb4cfe5&timestamp=1386774583&nonce=1387164522
INFO: [ route_check ] --START--
INFO: CheckRoute Behavior ::run [ RunTime:0.000560s ]
INFO: [ route_check ] --END-- [ RunTime:0.000636s ]
INFO: [ app_begin ] --START--
INFO: ReadHtmlCache Behavior ::run [ RunTime:0.000303s ]
INFO: [ app_begin ] --END-- [ RunTime:0.000356s ]
SQL: SHOW COLUMNS FROM `weixin_followers` [ RunTime:0.000701s ]
SQL: SELECT COUNT(*) AS tp_count FROM `weixin_followers` WHERE ( `open_id` = 'o1ULjtxRPjn9DJnzpBDnzr9TPsNU' ) LIMIT 1   [ RunTime:0.000362s ]
SQL: INSERT INTO `weixin_followers` (`open_id`) VALUES ('o1ULjtxRPjn9DJnzpBDnzr9TPsNU') [ RunTime:0.044192s ]

[ 2013-12-11T23:10:05+08:00 ] 101.226.33.171 /app/index.php/Access/Callback?signature=24a3fff80dfd6cdc2c2a9314fc8de51dfa9f282d&timestamp=1386774605&nonce=1387234475
INFO: [ route_check ] --START--
INFO: CheckRoute Behavior ::run [ RunTime:0.000643s ]
INFO: [ route_check ] --END-- [ RunTime:0.000728s ]
INFO: [ app_begin ] --START--
INFO: ReadHtmlCache Behavior ::run [ RunTime:0.000346s ]
INFO: [ app_begin ] --END-- [ RunTime:0.000406s ]
SQL: SHOW COLUMNS FROM `weixin_followers` [ RunTime:0.000602s ]
SQL: UPDATE `weixin_followers` SET `subscribed`=0 WHERE ( `open_id` = 'o1ULjtxRPjn9DJnzpBDnzr9TPsNU' ) [ RunTime:0.014394s ]

